…
## Example: FIA data and ambiguous genus ties

When input genera have tied fuzzy candidates, `wcvp_matching()` emits:

`Multiple fuzzy matches for some genera (tied distances). The first match is selected.`

Example with an FIA-like table (`Orig.Genus`, `Orig.Species`):

``` r
fia
#> # A tibble: 2,169 × 2
#>    Orig.Genus Orig.Species
#>    <chr>      <chr>       
#>  1 Abies      amabilis    
#>  2 Abies      balsamea    
#>  3 Abies      bracteata   
#>  4 Abies      concolor    
#>  5 Abies      fraseri     
#>  6 Abies      grandis     
#>  7 Abies      lasiocarpa  
#>  8 Abies      magnifica   
#>  9 Abies      procera     
#> 10 Abies      shastensis  
#> # ℹ 2,159 more rows
…
    max_dist = 2
  ) |>
  dplyr::select(
    input_name,
    orig_genus,
    matched_genus,
    orig_species,
    matched_species,
    taxon_status,
    accepted_taxon_name
  )
#> Warning: Multiple fuzzy matches for some genera (tied distances). The first
#> match is selected.
fia_result
#> # A tibble: 2,169 × 7
#>    input_name orig_genus matched_genus orig_species matched_species taxon_status
#>    <chr>      <chr>      <chr>         <chr>        <chr>           <chr>       
#>  1 Abies ama… Abies      Abies         amabilis     amabilis        Accepted    
#>  2 Abies bal… Abies      Abies         balsamea     balsamea        Accepted    
#>  3 Abies bra… Abies      Abies         bracteata    bracteata       Accepted    
#>  4 Abies con… Abies      Abies         concolor     concolor        Accepted    
#>  5 Abies fra… Abies      Abies         fraseri      fraseri         Accepted    
#>  6 Abies gra… Abies      Abies         grandis      grandis         Accepted    
#>  7 Abies las… Abies      Abies         lasiocarpa   lasiocarpa      Accepted    
#>  8 Abies mag… Abies      Abies         magnifica    magnifica       Accepted    
#>  9 Abies pro… Abies      Abies         procera      procera         Accepted    
#> 10 Abies sha… Abies      Abies         shastensis   shastensis      Synonym     
#> # ℹ 2,159 more rows
#> # ℹ 1 more variable: accepted_taxon_name <chr>
```
…
